<?xml version="1.0" encoding="UTF-8"?>
<svg width="232px" height="28px" viewBox="0 0 232 28" version="1.1" xmlns="http://www.w3.org/2000/svg" xmlns:xlink="http://www.w3.org/1999/xlink">
    <title>Group 2</title>
    <g id="Symbols" stroke="none" stroke-width="1" fill="none" fill-rule="evenodd">
        <g id="menu-bar-desktop" transform="translate(-806.000000, -29.000000)">
            <g id="Group-12" transform="translate(806.000000, 29.000000)">
                <g id="Group-2" transform="translate(0.834900, 0.393500)">
                    <path d="M17.0161,18.9814 C13.6536,18.9814 11.152,18.1834 9.5062,16.5869 C7.8559,14.9947 7.033,12.621 7.033,9.474 C7.033,6.3312 7.8602,3.9657 9.5102,2.382 C11.16,0.794 13.6618,5.5067062e-14 17.0161,5.5067062e-14 C23.678,5.5067062e-14 27.0107,3.1595 27.0107,9.474 C27.0107,15.8136 23.678,18.9814 17.0161,18.9814 Z M17.0161,14.4655 C18.6409,14.4655 19.8445,14.0891 20.626,13.3282 C21.4078,12.5674 21.8004,11.3185 21.8004,9.5735 C21.8004,8.7256 21.7054,7.9937 21.5152,7.3817 C21.3247,6.7655 21.0356,6.2609 20.6424,5.8638 C20.2538,5.4712 19.7574,5.1775 19.1537,4.9915 C18.5502,4.8096 17.839,4.7143 17.0161,4.7143 C16.1926,4.7143 15.4774,4.8096 14.8779,4.9915 C14.2741,5.1775 13.778,5.4712 13.3809,5.8638 C12.9838,6.2609 12.6944,6.7655 12.5042,7.3817 C12.314,7.9937 12.219,8.7256 12.219,9.5735 C12.219,11.3185 12.6116,12.5674 13.3931,13.3282 C14.1749,14.0891 15.3825,14.4655 17.0161,14.4655 Z M29.4094,0.2979 L36.1338,0.2979 L40.2525,11.2482 L44.3959,0.2979 L51.0953,0.2979 L51.0953,18.6834 L46.0916,18.6834 L46.0916,8.0144 L41.9728,18.6834 L38.1225,18.6834 L34.0494,8.0969 L34.0494,18.6834 L29.4094,18.6834 L29.4094,0.2979 Z M54.4986,0.2979 L69.146,0.2979 L69.146,4.9374 L59.6347,4.9374 L59.6347,7.179 L68.8935,7.179 L68.8935,11.6575 L59.6347,11.6575 L59.6347,14.2379 L69.2453,14.2379 L69.2453,18.6834 L54.4986,18.6834 L54.4986,0.2979 Z M80.6547,18.9564 C78.3306,18.9564 76.4739,18.6421 75.0843,18.0136 C73.6866,17.3645 72.6692,16.3882 72.0283,15.0815 C71.3917,13.7707 71.073,11.9016 71.073,9.47 C71.073,6.2983 71.892,3.9285 73.5335,2.3573 C75.1711,0.7858 77.6732,5.5067062e-14 81.0311,5.5067062e-14 C82.7679,5.5067062e-14 84.2771,0.2194 85.5635,0.6619 C86.8453,1.0999 87.9494,1.8031 88.8718,2.7748 L85.3194,6.323 C84.6907,5.6945 84.0415,5.2685 83.3717,5.0536 C82.7141,4.826 81.9283,4.7143 81.0062,4.7143 C79.3522,4.7143 78.1364,5.0865 77.3589,5.8394 C76.5938,6.5835 76.2091,7.8117 76.2091,9.5239 C76.2091,10.9588 76.354,12.0175 76.6477,12.6955 C76.9453,13.3654 77.4331,13.8575 78.1157,14.1679 C78.798,14.478 79.7366,14.635 80.9234,14.635 C82.3833,14.635 83.4131,14.4405 84.0126,14.0519 C84.6,13.659 84.8976,13.0224 84.8976,12.1496 L84.8976,11.8605 L80.2329,11.8605 L80.2329,7.7165 L89.8639,7.7165 L89.8639,11.1325 C89.8639,13.0224 89.5541,14.5315 88.9296,15.6606 C88.6152,16.219 88.2181,16.7068 87.7385,17.1204 C87.2546,17.538 86.6758,17.8812 85.9974,18.1502 C85.3194,18.4229 84.5379,18.6214 83.6526,18.758 C82.7679,18.8904 81.7713,18.9564 80.6547,18.9564 Z M97.6385,0.1738 L102.8738,0.1738 L110.2884,18.6834 L104.9581,18.6834 L104.0357,16.2975 L96.1993,16.2975 L95.2769,18.6834 L90.261,18.6834 L97.6385,0.1738 Z M102.4024,12.0835 L100.1111,6.232 L97.8327,12.0835 L102.4024,12.0835 Z M121.8424,4.9374 L115.7385,4.9374 L115.7385,0.2979 L133.1112,0.2979 L133.1112,4.9374 L127.0074,4.9374 L127.0074,18.6834 L121.8424,18.6834 L121.8424,4.9374 Z M134.964,0.2979 L144.2934,0.2979 C146.0548,0.2979 147.5022,0.5085 148.6315,0.9264 C149.7767,1.3564 150.6203,2.014 151.1623,2.9033 C151.7119,3.8047 151.9852,5.0491 151.9852,6.6331 C151.9852,8.2213 151.6875,9.4907 151.0837,10.4292 C150.4839,11.3681 149.599,12.0589 148.4368,12.4931 L151.795,18.6834 L146.2827,18.6834 L143.3134,13.1712 L139.9802,13.1712 L139.9802,18.6834 L134.964,18.6834 L134.964,0.2979 Z M144.1236,8.9076 C145.1576,8.9076 145.8646,8.7628 146.2453,8.4691 C146.6175,8.1714 146.8037,7.6215 146.8037,6.8233 C146.8037,5.9672 146.6175,5.3926 146.2453,5.1032 C145.8646,4.8135 145.1494,4.6647 144.0992,4.6647 L139.9802,4.6647 L139.9802,8.9076 L144.1236,8.9076 Z M163.3532,19.0556 C161.939,19.0556 160.7354,18.9439 159.7351,18.7209 C158.7384,18.5015 157.907,18.1956 157.2454,17.8067 C156.592,17.4305 156.0628,16.9506 155.6574,16.38 C155.2563,15.8136 154.9666,15.1727 154.7892,14.453 C154.6112,13.75 154.5202,12.7536 154.5202,11.4633 L154.5202,0.2979 L159.6809,0.2979 L159.6809,10.7768 C159.6809,11.8687 159.7926,12.6502 160.0202,13.1298 C160.1399,13.3696 160.2975,13.5765 160.4834,13.75 C160.6654,13.9238 160.897,14.0686 161.174,14.18 C161.4469,14.296 161.7692,14.3785 162.1414,14.4366 C162.5136,14.4944 162.9399,14.5194 163.4235,14.5194 C164.4037,14.5194 165.1561,14.4116 165.6898,14.1925 C166.2233,13.9691 166.6037,13.6137 166.8311,13.1298 C167.0544,12.642 167.1701,11.8605 167.1701,10.7768 L167.1701,0.2979 L172.1616,0.2979 L172.1616,11.4633 C172.1616,12.7077 172.0664,13.7004 171.8804,14.4405 C171.7937,14.8045 171.6777,15.1478 171.5371,15.4704 C171.3965,15.793 171.2228,16.0991 171.0201,16.38 C170.7389,16.7896 170.3752,17.1618 169.9327,17.4926 C169.486,17.8234 168.9525,18.1043 168.3238,18.3362 C167.6996,18.5635 166.9759,18.7416 166.153,18.8697 C165.3259,18.9936 164.3955,19.0556 163.3532,19.0556 Z M184.0093,18.9564 C180.6888,18.9564 178.2487,18.2038 176.6897,16.7029 C175.1306,15.1931 174.3531,12.7823 174.3531,9.47 C174.3531,3.1555 177.6824,5.5067062e-14 184.3361,5.5067062e-14 C185.2083,5.5067062e-14 186.0063,0.0578 186.7303,0.1695 C187.4497,0.2812 188.1116,0.4468 188.7111,0.6659 C189.3146,0.8935 189.8855,1.1869 190.419,1.5426 C190.9522,1.9023 191.461,2.3366 191.9449,2.8451 L188.405,6.3975 C187.7434,5.7399 187.1067,5.2974 186.4905,5.0618 C185.862,4.8302 185.1341,4.7101 184.3112,4.7101 C182.6736,4.7101 181.4658,5.095 180.697,5.8638 C179.9234,6.6291 179.5391,7.8571 179.5391,9.5443 C179.5391,10.7643 179.7001,11.6989 180.0229,12.3565 C180.3452,13.0263 180.854,13.5267 181.5488,13.8617 C182.2433,14.1965 183.1736,14.3663 184.3361,14.3663 C184.9271,14.3663 185.4649,14.3082 185.957,14.1965 C186.4448,14.0766 186.8791,13.9028 187.2677,13.6755 C187.6566,13.4481 188.1323,13.0717 188.6986,12.5467 L192.0773,15.855 C191.0021,16.9923 189.8317,17.7985 188.5623,18.2659 C187.3048,18.7248 185.7875,18.9564 184.0093,18.9564 Z M194.6205,0.2979 L199.6863,0.2979 L199.6863,7.5305 L205.4636,0.2979 L211.1207,0.2979 L205.0914,7.613 L212.0179,18.6834 L206.1912,18.6834 L201.7703,11.6325 L199.6863,14.1679 L199.6863,18.6834 L194.6205,18.6834 L194.6205,0.2979 Z M221.5335,18.9564 C219.5444,18.9564 217.7373,18.7248 216.1037,18.2659 C214.4661,17.8067 213.1554,17.1825 212.1794,16.401 L214.7598,12.6955 C215.6901,13.3325 216.716,13.8285 217.8365,14.1761 C218.9613,14.5273 220.1439,14.7053 221.3886,14.7053 C222.2614,14.7053 222.9437,14.6764 223.4355,14.6146 C223.9276,14.5522 224.2916,14.457 224.5232,14.3291 C224.759,14.2007 224.9039,14.0437 224.9535,13.8575 C225.0071,13.6715 225.032,13.4481 225.032,13.1916 C225.032,12.8194 224.8047,12.5385 224.3412,12.344 C224.1096,12.2366 223.7334,12.1374 223.2164,12.0379 C222.6997,11.9429 222.0338,11.8437 221.2194,11.736 C218.9817,11.4633 217.3402,11.1033 216.2979,10.6608 C215.7896,10.4417 215.3511,10.1855 214.9789,9.8918 C214.6067,9.5942 214.3009,9.2551 214.0568,8.8662 C213.817,8.4776 213.6393,8.0394 213.5233,7.5473 C213.4117,7.0549 213.3538,6.4965 213.3538,5.8765 C213.3538,3.7837 213.9823,2.2828 215.2312,1.3691 C216.5008,0.455 218.5931,5.5067062e-14 221.5085,5.5067062e-14 C224.8999,5.5067062e-14 227.5667,0.6287 229.5022,1.8902 L226.7192,5.8765 C226.1279,5.4876 225.3214,5.1568 224.2958,4.8799 C223.7873,4.7432 223.2949,4.6358 222.8238,4.553 C222.3521,4.4745 221.8974,4.4413 221.4589,4.4581 C220.8716,4.4745 220.3837,4.4952 219.9994,4.5199 C219.6144,4.5408 219.3128,4.5984 219.0852,4.6896 C218.8579,4.7764 218.7008,4.9048 218.6056,5.0701 C218.5146,5.2353 218.4653,5.4629 218.4568,5.7521 C218.4485,6.0129 218.5395,6.232 218.734,6.4179 C218.9364,6.5959 219.2383,6.7408 219.6436,6.8443 C219.8545,6.9018 220.1978,6.9639 220.6734,7.0384 C221.1488,7.1087 221.7651,7.1955 222.5259,7.2907 C224.1881,7.4931 225.4867,7.7457 226.413,8.0433 C227.3105,8.316 228.0217,8.6678 228.5472,9.0978 C229.5975,9.9292 230.1225,11.211 230.1225,12.9478 C230.1225,14.4034 229.8248,15.5614 229.2253,16.4256 C228.638,17.2732 227.7076,17.9062 226.4462,18.3277 C225.1808,18.7455 223.5432,18.9564 221.5335,18.9564 L221.5335,18.9564 Z" id="Fill-10" fill="#515C5E"></path>
                    <polygon id="Fill-11" fill="#FF0D31" points="1.687539e-13 26.4172 25.5892 26.4169 25.5892 21.8571 3.0007 21.8571"></polygon>
                </g>
            </g>
        </g>
    </g>
</svg>